…
``` r
dependency_data <- five_yr_pop_data %>% rename("YR"="#YR") %>% filter(YR==1990|YR==2000|YR==2010|YR==2020|YR==2030|YR==2040|YR==2050) %>% filter(GEO_ID=="W140000WOCM"|GEO_ID=="W140000WOKE"|GEO_ID=="W140000WONG"|GEO_ID=="W140000WOZA")
dependency_data <- dependency_data %>% select(YR,GEO_ID,POP0_4,POP5_9,POP10_14,POP15_19,POP20_24,POP25_29,POP30_34,POP35_39,POP40_44,POP45_49,POP50_54,POP55_59,POP60_64) %>% rowwise() %>% mutate(dependents=sum(POP0_4,POP5_9,POP10_14)) %>% mutate(working=sum(POP15_19,POP20_24,POP25_29,POP30_34,POP35_39,POP40_44,POP45_49,POP50_54,POP55_59,POP60_64)) %>% select(YR,GEO_ID,dependents,working) %>% mutate(dependency.ratio=dependents/working)
dependency_data
```

    ## # A tibble: 28 × 5
    ## # Rowwise: 
    ##       YR GEO_ID      dependents  working dependency.ratio
    ##    <dbl> <chr>            <dbl>    <dbl>            <dbl>
    ##  1  1990 W140000WOCM    5457170  6038585            0.904
    ##  2  2000 W140000WOCM    7229157  8155694            0.886
    ##  3  2010 W140000WOCM    9214107 11075161            0.832
    ##  4  2020 W140000WOCM   11746880 15133054            0.776
    ##  5  2030 W140000WOCM   14562967 20463288            0.712
    ##  6  2040 W140000WOCM   17162572 27207127            0.631
    ##  7  2050 W140000WOCM   19533102 34946461            0.559
    ##  8  1990 W140000WOKE   11315117 11366439            0.995
    ##  9  2000 W140000WOKE   13364623 16753821            0.798
    ## 10  2010 W140000WOKE   18095439 22560835            0.802
    ## # … with 18 more rows
…
